…
The file_data object contains the result of the read_excel() function’s
attempt to load this sheet into R:

file_data

## # A tibble: 33 x 9
##    Contents     ...2   ...3   ...4   ...5   ...6    ...7    ...8    ...9   
##    <chr>        <chr>  <chr>  <chr>  <chr>  <chr>   <chr>   <chr>   <chr>  
##  1 <NA>         <NA>   <NA>   <NA>   <NA>   <NA>    <NA>    <NA>    <NA>   
##  2 MYE1: Popul… <NA>   <NA>   <NA>   <NA>   "Pleas… This m… I need… "This …
##  3 <NA>         <NA>   <NA>   <NA>   <NA>   <NA>    <NA>    <NA>    <NA>   
##  4 Country / C… K0200… K0300… K0400… E9200… W92000… S92000… N92000… <NA>   
##  5 <NA>         UNITE… GREAT… ENGLA… ENGLA… WALES   SCOTLA… NORTHE… <NA>   
##  6 <NA>         <NA>   <NA>   <NA>   <NA>   <NA>    <NA>    <NA>    <NA>   
##  7 All Persons  66435… 64553… 59115… 55977… 3138631 5438100 1881641 <NA>   
##  8 Males        32790… 31864… 29215… 27667… 1547309 2648751 926200  <NA>   
##  9 Females      33645… 32689… 29900… 28309… 1591322 2789349 955441  <NA>   
## 10 <NA>         <NA>   <NA>   <NA>   <NA>   <NA>    <NA>    <NA>    <NA>   
## # … with 23 more rows
…
We can work out which cells we want to retain either by opening the file in
Excel and noting which rows contain the data, or by running View(file_data) in
R and then adjusting the value of range = in read_excel() until we are
happy with the result.

file_data <- read_excel("ons_pop_data.xls",
  sheet = "MYE1",
  range = cell_rows(5:31)
)

file_data

## # A tibble: 26 x 8
##    `Country / Code` K02000001 K03000001 K04000001 E92000001 W92000004
##    <chr>            <chr>     <chr>     <chr>     <chr>     <chr>    
##  1 <NA>             UNITED K… GREAT BR… ENGLAND … ENGLAND   WALES    
##  2 <NA>             <NA>      <NA>      <NA>      <NA>      <NA>     
##  3 All Persons      66435550  64553909  59115809  55977178  3138631  
##  4 Males            32790202  31864002  29215251  27667942  1547309  
##  5 Females          33645348  32689907  29900558  28309236  1591322  
##  6 <NA>             <NA>      <NA>      <NA>      <NA>      <NA>     
##  7 Age Groups       <NA>      <NA>      <NA>      <NA>      <NA>     
##  8 0-4              3914028   3792292   3515430   3346727   168703   
##  9 5-9              4138524   4009409   3708320   3523866   184454   
## 10 10-14            3858894   3738572   3450782   3274119   176663   
## # … with 16 more rows, and 2 more variables: S92000003 <chr>,
## #   N92000002 <chr>
…
library("magrittr")

# set a value for the first row in the first column, which is currently blank
file_data <- inset(file_data, 1, 1, "group")

# replace the existing column names with the values from the first row
file_data <- set_colnames(file_data, file_data[1, ])

# remove the first row, which we no longer need, using slice() from dplyr
file_data <- slice(file_data, 2:n())

file_data

## # A tibble: 25 x 8
##    group `UNITED KINGDOM` `GREAT BRITAIN` `ENGLAND AND WA… ENGLAND WALES
##    <chr> <chr>            <chr>           <chr>            <chr>   <chr>
##  1 <NA>  <NA>             <NA>            <NA>             <NA>    <NA> 
##  2 All … 66435550         64553909        59115809         559771… 3138…
##  3 Males 32790202         31864002        29215251         276679… 1547…
##  4 Fema… 33645348         32689907        29900558         283092… 1591…
##  5 <NA>  <NA>             <NA>            <NA>             <NA>    <NA> 
##  6 Age … <NA>             <NA>            <NA>             <NA>    <NA> 
##  7 0-4   3914028          3792292         3515430          3346727 1687…
##  8 5-9   4138524          4009409         3708320          3523866 1844…
##  9 10-14 3858894          3738572         3450782          3274119 1766…
## 10 15-19 3669250          3555359         3270795          3096575 1742…
## # … with 15 more rows, and 2 more variables: SCOTLAND <chr>, `NORTHERN
## #   IRELAND` <chr>

Next we remove any rows containing empty cells, since none of the data rows
contain empty cells (see Tips, below, for tables where this isn’t the
case).

file_data <- drop_na(file_data)

file_data

## # A tibble: 22 x 8
##    group `UNITED KINGDOM` `GREAT BRITAIN` `ENGLAND AND WA… ENGLAND WALES
##    <chr> <chr>            <chr>           <chr>            <chr>   <chr>
##  1 All … 66435550         64553909        59115809         559771… 3138…
##  2 Males 32790202         31864002        29215251         276679… 1547…
##  3 Fema… 33645348         32689907        29900558         283092… 1591…
##  4 0-4   3914028          3792292         3515430          3346727 1687…
##  5 5-9   4138524          4009409         3708320          3523866 1844…
##  6 10-14 3858894          3738572         3450782          3274119 1766…
##  7 15-19 3669250          3555359         3270795          3096575 1742…
##  8 20-24 4184575          4068584         3717960          3512654 2053…
##  9 25-29 4527175          4404612         4022272          3815924 2063…
## 10 30-34 4463357          4337288         3976030          3787597 1884…
## # … with 12 more rows, and 2 more variables: SCOTLAND <chr>, `NORTHERN
## #   IRELAND` <chr>

We can convert the data from wide to long using gather() from the tidyr
package. gather() can be a slightly confusing function to use, but there are
some useful tutorials available by Garrett Grolemund, UC Business Analytics and R for Data
Science.

file_data <- gather(file_data, key = "geography", value = "population", -group)

file_data

## # A tibble: 154 x 3
##    group       geography      population
##    <chr>       <chr>          <chr>     
##  1 All Persons UNITED KINGDOM 66435550  
##  2 Males       UNITED KINGDOM 32790202  
##  3 Females     UNITED KINGDOM 33645348  
##  4 0-4         UNITED KINGDOM 3914028   
##  5 5-9         UNITED KINGDOM 4138524   
##  6 10-14       UNITED KINGDOM 3858894   
##  7 15-19       UNITED KINGDOM 3669250   
##  8 20-24       UNITED KINGDOM 4184575   
##  9 25-29       UNITED KINGDOM 4527175   
## 10 30-34       UNITED KINGDOM 4463357   
## # … with 144 more rows

Finally, we will neaten the data by converting the population variable to
numeric and the geography variable to title case (using a function from the
stringr package).

tidy_data <- mutate(
  file_data,
  geography = str_to_title(geography),
  population = as.numeric(population)
)

tidy_data

## # A tibble: 154 x 3
##    group       geography      population
##    <chr>       <chr>               <dbl>
##  1 All Persons United Kingdom   66435550
##  2 Males       United Kingdom   32790202
##  3 Females     United Kingdom   33645348
##  4 0-4         United Kingdom    3914028
##  5 5-9         United Kingdom    4138524
##  6 10-14       United Kingdom    3858894
##  7 15-19       United Kingdom    3669250
##  8 20-24       United Kingdom    4184575
##  9 25-29       United Kingdom    4527175
## 10 30-34       United Kingdom    4463357
## # … with 144 more rows
…
tidy_data

## # A tibble: 154 x 3
##    group       geography      population
##    <chr>       <chr>               <dbl>
##  1 All Persons United Kingdom   66435550
##  2 Males       United Kingdom   32790202
##  3 Females     United Kingdom   33645348
##  4 0-4         United Kingdom    3914028
##  5 5-9         United Kingdom    4138524
##  6 10-14       United Kingdom    3858894
##  7 15-19       United Kingdom    3669250
##  8 20-24       United Kingdom    4184575
##  9 25-29       United Kingdom    4527175
## 10 30-34       United Kingdom    4463357
## # … with 144 more rows
…
